<?xml version="1.0" encoding="utf-8"?>
<!-- Generator: Adobe Illustrator 19.0.0, SVG Export Plug-In . SVG Version: 6.00 Build 0)  -->
<svg version="1.1" id="Layer_1" xmlns="http://www.w3.org/2000/svg" xmlns:xlink="http://www.w3.org/1999/xlink" x="0px" y="0px"
	 viewBox="0 0 512 512" style="enable-background:new 0 0 512 512;" xml:space="preserve">
<style type="text/css">
	.st0{fill:#22617B;}
	.st1{fill:#24637D;}
	.st2{fill:#6594AD;}
</style>
<g id="XMLID_4_">
	<g>
		<path id="XMLID_10_" class="st0" d="M255.9999847,494l225.2697906-126.6880493v-29.3647766H349.9672852l92.5187073,8.0166016
			l-186.4860077,104.87677l-186.4859924-104.87677l92.5186844-8.0166016H30.7302094v29.3647766L255.9999847,494z
			 M45.8320999,348.4340515v-0.4182434l14.7834244-1.2809753l195.3844604,109.8807678l195.3844757-109.8807678l14.7834473,1.2809753
			v0.4182434v11.3269653l-210.167511,118.1947937l-0.000412,0.103302l-0.0003662-0.103302L45.8320999,359.7610168V348.4340515z"/>
	</g>
	<path id="XMLID_29_" class="st1" d="M249.8621216,346.6106262c2.1905823,0,3.9666748-1.7760925,3.9666748-3.9666443v-50.6757202
		h-7.9333344v50.6757202C245.895462,344.8345337,247.6715546,346.6106262,249.8621216,346.6106262z"/>
	<path id="XMLID_5_" class="st2" d="M312.7661438,165.8062744c-2.8607178-41.7749329-10.3059692-75.4577026-21.5290527-97.4075241
		C282.3363037,50.9947052,270.6609802,34.964859,256.535553,20.7542C254.7696228,18.9781094,252.3993988,18,249.8621216,18
		c-2.5367889,0-4.9069977,0.9776249-6.6743774,2.7546825c-14.1249542,14.2092075-25.7997894,30.2390537-34.700592,47.6440659
		c-9.4010315,18.3831177-16.1492004,45.0045547-19.7749786,77.7157516c2.5956116-2.5732117,5.5471954-4.786911,8.7741089-6.5606384
		c3.6611938-28.3252106,9.7982178-51.3795242,18.0645599-67.5428925
		c7.9055023-15.459507,18.1059113-29.7895241,30.3446198-42.6550446v118.8366394
		c3.5538177,4.0690155,6.2909393,8.8684082,7.9333344,14.1491699V29.3561687
		c12.2393188,12.8672161,22.4397888,27.1971111,30.3446045,42.6548004
		c10.7398376,21.0022202,17.8897095,53.6235962,20.678772,94.337616
		c3.7555542,54.8399353-2.4772339,97.5314789-6.600769,125.7804108
		c-4.4721985,30.637085-10.8908997,61.4165344-19.078949,91.4822388c-0.2111206,0.7747192-0.7718201,1.1456299-1.0875244,1.298645
		c-0.3166809,0.1530151-0.9568176,0.3621826-1.6976624,0.0435791l-24.9625854-10.6981812
		c-0.9974823-0.4280396-2.1276398-0.4280396-3.1251068,0l-24.963562,10.6981812
		c-0.7398834,0.3195801-1.3804932,0.109436-1.6971741-0.0435791c-0.3152161-0.1530151-0.8764191-0.5239258-1.0875397-1.298645
		c-8.1870575-30.0647583-14.6062622-60.8432007-19.0789185-91.4822388
		c-0.0076904-0.0527039-0.0157471-0.1079102-0.0234375-0.1607361h-8.0172729
		c0.0635529,0.4355469,0.128006,0.878418,0.1906586,1.307373c4.5186615,30.9537354,11.0037231,62.0479126,19.2745514,92.4196472
		c0.7577972,2.7822876,2.6864014,5.0997314,5.2919464,6.3576965c1.3742065,0.6643372,2.8626709,0.9974976,4.3511353,0.9974976
		c1.3340149,0,2.6685028-0.2673035,3.9216309-0.8047791l23.400528-10.0289917l23.4000549,10.0280151
		c2.6505737,1.1388855,5.6652832,1.0672302,8.2722778-0.1907654c2.6060181-1.2589417,4.5351257-3.5763855,5.2924194-6.3586731
		c8.2713318-30.3727112,14.7568665-61.4678345,19.2745667-92.4196472
		C310.2743835,264.6906433,316.5807495,221.4940643,312.7661438,165.8062744z"/>
	<g id="XMLID_3_">
		<path id="XMLID_34_" class="st0" d="M245.895462,291.9682617h7.9333344h10.8569946c4.1080627,0,7.4375-3.3294373,7.4375-7.4375
			V197.973938c0-4.1075745-3.3294373-7.4375-7.4375-7.4375h-9.0959167v-16.5576324
			c0-4.0500183-0.6170654-7.9585114-1.7610779-11.6370697c-1.642395-5.2807617-4.3795166-10.0801544-7.9333344-14.1491699
			c-7.2016907-8.2457123-17.7799683-13.4703064-29.5621338-13.4703064c-6.8262939,0-13.2491913,1.7546082-18.8470459,4.831604
			c-3.2269135,1.7737274-6.1784973,3.9874268-8.7741089,6.5606384c-7.1799011,7.1177979-11.635376,16.9794464-11.635376,27.8643036
			v16.5576324h-9.095932c-4.1075745,0-7.4375,3.3299255-7.4375,7.4375v86.5568237c0,4.1080627,3.3299255,7.4375,7.4375,7.4375
			h25.4508057h8.0172729H245.895462z M191.9517975,173.9788055c0-4.419281,1.1877136-8.5637817,3.2519073-12.141861
			c4.2154236-7.3071289,12.1047668-12.2396851,21.1296234-12.2396851c13.4441528,0,24.381546,10.9373932,24.381546,24.381546
			v16.5576324h-46.9035187h-1.8595581V173.9788055z M175.4183655,277.0932617V205.411438h9.095932h1.2918701h7.9365387h52.1527557
			h2.2569122h5.6764221h3.4194946v71.6818237h-3.4194946h-7.9333344h-46.5651245h-8.0065613H175.4183655z"/>
		<path id="XMLID_38_" class="st0" d="M208.8958282,252.7514801v6.0472565c0,4.1080627,3.3299255,7.4375,7.4375,7.4375
			s7.4375-3.3294373,7.4375-7.4375v-6.0472565c3.7261353-2.436554,6.1979218-6.638916,6.1979218-11.4134216
			c0-7.5183716-6.1170502-13.6354218-13.6354218-13.6354218c-7.5183563,0-13.6354065,6.1170502-13.6354065,13.6354218
			C202.6979218,246.1125641,205.169693,250.3149261,208.8958282,252.7514801z M216.3333282,240.098465
			c0.6837158,0,1.2395935,0.5558777,1.2395935,1.2395935c0,0.6837006-0.5558777,1.2395782-1.2395935,1.2395782
			c-0.6837006,0-1.2395782-0.5558777-1.2395782-1.2395782C215.09375,240.6543427,215.6496277,240.098465,216.3333282,240.098465z"/>
	</g>
</g>
</svg>
