<?xml version="1.0" encoding="utf-8"?>
<!-- Generator: Adobe Illustrator 19.0.0, SVG Export Plug-In . SVG Version: 6.00 Build 0)  -->
<svg version="1.1" id="Layer_1" xmlns="http://www.w3.org/2000/svg" xmlns:xlink="http://www.w3.org/1999/xlink" x="0px" y="0px"
	 viewBox="0 0 512 512" style="enable-background:new 0 0 512 512;" xml:space="preserve">
<style type="text/css">
	.st0{fill:#6594AD;}
	.st1{fill:#21607B;}
</style>
<g id="XMLID_3_">
	<g id="XMLID_11_">
		<path id="XMLID_5_" class="st0" d="M215.7093048,142.8948975l14.3991241,157.6329956
			c0.8086395,8.8524475,8.232193,15.6288147,17.1215057,15.6288147h0.0000153H264.77005h0.0000305
			c8.8892822,0,16.3128357-6.7763672,17.1214905-15.6288147l14.3991089-157.6329956
			c0.9199524-10.0709381-7.0086365-18.7567596-17.1214905-18.7567596h-46.3383789
			C222.7179413,124.1381378,214.7893677,132.8239594,215.7093048,142.8948975z"/>
	</g>
	<g id="XMLID_10_">
		<path id="XMLID_4_" class="st0" d="M256.4046326,387.8618774h-0.8092804
			c-15.6026764,0-28.2511597-12.6484985-28.2511597-28.2511902v-0.8092957
			c0-15.6026917,12.6484833-28.2511597,28.2511597-28.2511597h0.8092804c15.6026917,0,28.2511597,12.648468,28.2511597,28.2511597
			v0.8092957C284.6557922,375.2133789,272.0073242,387.8618774,256.4046326,387.8618774z"/>
	</g>
	<path id="XMLID_18_" class="st1" d="M187.0883942,164.0427399c-2.7214203,0.585907-8.1528015,1.1939087-13.9434052-1.3043823
		c-7.4175415-3.1995239-10.8371124-9.4739685-11.9625244-12.0235138c-2.054657-4.652359-6.537796-7.7657166-11.6147919-8.0661926
		c-5.0769958-0.3000183-9.8959503,2.2619019-12.4857025,6.6394196c-4.335556,7.3305054-12.1609344,11.6717987-20.4533615,11.2975311
		c-11.8339539-0.5165253-18.2047272-10.8578796-18.4561462-11.2741089
		c-2.1783752-3.6992645-5.977951-6.1502838-10.2463379-6.6089325c-4.2723694-0.4613037-8.5027618,1.1285095-11.4172821,4.2807617
		c-2.6927109,2.9127502-8.5641708,8.0268707-17.6285362,9.5552673c-9.8424797,1.6591949-17.6656494-2.0215149-20.5722198-3.6807098
		c-6.5095139-3.7178345-14.8006172-1.4546051-18.5188866,5.0553436c-3.7178288,6.5095215-1.4546108,14.8010559,5.0553455,18.5188904
		c6.7534218,3.8565674,20.7414532,9.8800354,38.5493851,6.8762665c8.7528496-1.4753876,15.914547-4.7274933,21.4908485-8.2796173
		c6.7397308,5.9973907,16.8672104,12.0813904,30.5605164,12.6792297
		c11.7159805,0.5156555,22.9790497-3.1579895,32.0549011-10.0452881c3.8269653,3.7412415,8.7197113,7.341095,14.8925171,10.0037537
		c6.1997681,2.6741486,12.9885406,4.0381775,19.802948,4.0381775c3.551239,0,7.1104431-0.3707123,10.5954132-1.1192322
		c7.3296051-1.5747986,11.9947815-8.7930603,10.4199982-16.1226654
		C201.6362762,167.1331177,194.4188995,162.4701538,187.0883942,164.0427399z"/>
	<path id="XMLID_19_" class="st1" d="M187.0883942,234.4013519c-2.7214203,0.585907-8.1528015,1.1934662-13.9434052-1.3043823
		c-7.4175415-3.1995239-10.8371124-9.4739685-11.9625244-12.0235138c-2.054657-4.6523743-6.537796-7.7657318-11.6147919-8.0661926
		c-5.0769958-0.295166-9.8959503,2.2618866-12.4857025,6.6394196c-4.335556,7.3304901-12.1609344,11.6673737-20.4533615,11.2975311
		c-11.8339539-0.5165405-18.2047272-10.8578796-18.4561462-11.2741089
		c-2.1783752-3.6992798-5.977951-6.1502838-10.2463379-6.6089325c-4.2723694-0.4586639-8.5027618,1.128952-11.4172821,4.2807617
		c-2.6927109,2.9127502-8.5641708,8.0268555-17.6285362,9.5552673c-9.8424797,1.6605225-17.6656494-2.0210876-20.5722198-3.6807098
		c-6.5095139-3.7178345-14.8006172-1.4550629-18.5188866,5.0553436c-3.7178288,6.5095062-1.4546108,14.8010559,5.0553455,18.5188904
		c6.7534218,3.8565674,20.7414532,9.8791351,38.5493851,6.8762512c8.7528496-1.4753723,15.914547-4.727478,21.4908485-8.2796173
		c6.7397308,5.997406,16.8672104,12.0813904,30.5605164,12.6792297
		c11.7159805,0.5130005,22.9790497-3.1584167,32.0549011-10.0452881c3.8269653,3.7412567,8.7197113,7.3411102,14.8925171,10.0037537
		c6.1997681,2.6741638,12.9885406,4.0381775,19.802948,4.0381775c3.551239,0,7.1104431-0.370697,10.5954132-1.1192322
		c7.3296051-1.5747986,11.9947815-8.793045,10.4199982-16.1226654
		C201.6362762,237.4921722,194.4188995,232.8296356,187.0883942,234.4013519z"/>
	<path id="XMLID_20_" class="st1" d="M187.0883942,304.7599487c-2.7218628,0.585022-8.1528015,1.1947937-13.9434052-1.3043823
		c-7.4175415-3.1990662-10.8371124-9.4743958-11.9625244-12.0234985c-2.054657-4.6523743-6.537796-7.7657471-11.6147919-8.0661926
		c-5.0769958-0.2987061-9.8959503,2.2623291-12.4857025,6.6394043c-4.335556,7.3305054-12.1724243,11.6404114-20.4533615,11.2975464
		c-11.8343964-0.5169983-18.2056122-10.8587646-18.4574661-11.2763367c-2.1783829-3.6983948-5.9784012-6.1484985-10.2463455-6.60672
		c-4.2710419-0.4586487-8.5018692,1.1293945-11.4159546,4.2807617c-2.6931458,2.9127502-8.5646133,8.0277405-17.6280937,9.5557251
		c-9.8482246,1.6578674-17.6665344-2.0219727-20.5713348-3.6807251c-6.5086327-3.7169495-14.8006191-1.4563904-18.519331,5.0531311
		s-1.4563789,14.8006287,5.0531368,18.5193481c6.7520962,3.8574524,20.7383614,9.8826904,38.5507126,6.8780212
		c8.7537346-1.4758301,15.915432-4.7279358,21.4917336-8.2805176c6.7401657,5.9969788,16.8689728,12.0823059,30.5591965,12.6788025
		c11.705368,0.5143433,22.978157-3.1557617,32.055336-10.0444031c3.8269653,3.7408142,8.7197113,7.341095,14.8925171,10.0037537
		c6.1993256,2.6741638,12.9872131,4.0377502,19.802063,4.0377502c3.5516815,0,7.1113281-0.3703003,10.5962982-1.1196899
		c7.3296051-1.5747986,11.9947815-8.7930603,10.4199982-16.1226807
		C201.6362762,307.8503418,194.4188995,303.1824951,187.0883942,304.7599487z"/>
	<path id="XMLID_21_" class="st1" d="M319.2091675,190.5854034c3.4854126,0.7485199,7.0424194,1.1192322,10.5950012,1.1192322
		c6.8135071-0.0004425,13.6040344-1.3644714,19.8033752-4.0381775c6.172821-2.6626587,11.065094-6.2625122,14.8916321-10.0033112
		c9.0776062,6.8868561,20.3486328,10.5507813,32.0562134,10.0448456
		c13.6924438-0.5978394,23.8208008-6.6822815,30.5600891-12.6796722c5.5762939,3.5525665,12.7371216,6.8046722,21.4895325,8.2800598
		c17.8114624,3.0037689,31.7981567-3.0201416,38.5506897-6.876709c6.5104065-3.718277,8.7727356-12.0098114,5.0540161-18.5193329
		c-3.7169189-6.5099487-12.0089111-8.7709656-18.5184326-5.0540161c-2.9057007,1.6596375-10.725769,5.3403473-20.5722351,3.6802673
		c-9.0617065-1.5279541-14.9358215-6.6434021-17.6302795-9.5570374c-2.9145203-3.1513519-7.1387329-4.7500153-11.40979-4.2909241
		c-4.2674866,0.4590912-8.0604248,2.8981781-10.2379456,6.5974426c-0.2651062,0.4396515-6.6367493,10.7810059-18.4689331,11.2975311
		c-8.2814026,0.3698425-16.1191406-3.9679108-20.4547119-11.2979736c-2.5892944-4.3770752-7.4091187-6.9425354-12.4852295-6.6389771
		c-5.0770264,0.3004761-9.5601501,3.4138336-11.6148071,8.0661926c-1.1258545,2.5495453-4.5449829,8.8239899-11.9629822,12.0235138
		c-5.7892761,2.496521-11.2206421,1.8894043-13.9433899,1.3043823c-7.3269653-1.5752411-14.5478821,3.0903778-16.1217957,10.4204407
		C307.214386,181.7923431,311.8795776,189.0106049,319.2091675,190.5854034z"/>
	<path id="XMLID_22_" class="st1" d="M319.2091675,260.9440002c3.4854126,0.7485352,7.0424194,1.1192322,10.5950012,1.1192322
		c6.8135071-0.0004272,13.6040344-1.3644714,19.8033752-4.0381775c6.172821-2.6626434,11.065094-6.2624969,14.8916321-10.0033112
		c9.0776062,6.8868713,20.3486328,10.5521088,32.0562134,10.0448456
		c13.6924438-0.5978394,23.8208008-6.6822662,30.5600891-12.6796722c5.5762939,3.5525818,12.7371216,6.8046875,21.4895325,8.2800598
		c17.8114624,3.0024567,31.7981567-3.0196838,38.5506897-6.8766937c6.5104065-3.718277,8.7727356-12.0098267,5.0540161-18.5193329
		c-3.7169189-6.509079-12.0089111-8.7714081-18.5184326-5.0540161c-2.9057007,1.6591797-10.725769,5.3399048-20.5722351,3.6802673
		c-9.0617065-1.5279694-14.9358215-6.6434021-17.6302795-9.5570374c-2.9145203-3.1513672-7.1387329-4.7500153-11.40979-4.2909241
		c-4.2674866,0.4590912-8.0604248,2.8981781-10.2379456,6.5974426c-0.2651062,0.4396515-6.6367493,10.7809906-18.4689331,11.2975311
		c-8.2814026,0.3720551-16.1191406-3.967926-20.4547119-11.2979736c-2.5892944-4.3770905-7.4091187-6.9376831-12.4852295-6.6389771
		c-5.0770264,0.3004608-9.5601501,3.4138184-11.6148071,8.0661926c-1.1258545,2.5495453-4.5449829,8.8239899-11.9629822,12.0235138
		c-5.7892761,2.497406-11.2206421,1.8894043-13.9433899,1.3043823c-7.3269653-1.5743561-14.5478821,3.0908203-16.1217957,10.4204254
		C307.214386,252.1509552,311.8795776,259.3692017,319.2091675,260.9440002z"/>
	<path id="XMLID_23_" class="st1" d="M492.2097168,298.6277771c-3.720459-6.5086365-12.0124512-8.7700806-18.5202026-5.0522461
		c-2.9047852,1.6596375-10.723999,5.3394775-20.5704651,3.6807251c-9.0617065-1.5279846-14.9358215-6.6438599-17.6302795-9.5574951
		c-2.9145203-3.1509094-7.1351929-4.75-11.408905-4.2904663c-4.2674866,0.4586487-8.0595398,2.8972778-10.2379456,6.5956726
		c-0.2659912,0.440094-6.6367493,10.7818604-18.4707031,11.2988586c-8.2805176,0.3738098-16.1182556-3.967926-20.4538269-11.2979736
		c-2.5892944-4.3771057-7.4091187-6.9412231-12.4852295-6.6389771c-5.0770264,0.3004456-9.5601501,3.4138184-11.6148071,8.0661926
		c-1.1258545,2.5491028-4.5449829,8.8244324-11.9629822,12.0234985c-5.7883911,2.498291-11.2215271,1.8885193-13.9433899,1.3043823
		c-7.3269653-1.5774536-14.5478821,3.0895081-16.1217957,10.4199829
		c-1.5747986,7.3296204,3.0903931,14.5478821,10.4199829,16.1217957c3.4854126,0.7493896,7.0441895,1.1196899,10.5958557,1.1196899
		c6.8144226,0,13.6040649-1.3644714,19.8025208-4.0377502c6.172821-2.6626587,11.065094-6.2620544,14.8916321-10.0037537
		c9.0767212,6.8868713,20.3592529,10.5560913,32.0553284,10.0444031
		c13.6924438-0.5964966,23.8199158-6.6818237,30.5600891-12.679657c5.5762939,3.5534363,12.7380066,6.805542,21.4913025,8.2813721
		c17.8096924,3.0020142,31.7981567-3.0205688,38.5515747-6.8780212
		C493.6669922,313.4284058,495.9284363,305.1372986,492.2097168,298.6277771z"/>
</g>
</svg>
